[gd_scene load_steps=4 format=1]

[ext_resource path="res://Scenes/win.gd" type="Script" id=1]
[ext_resource path="res://Fonts/8-BIT WONDER.fnt" type="BitmapFont" id=2]
[ext_resource path="res://Fonts/8-BIT WONDER small.fnt" type="BitmapFont" id=3]

[node name="win" type="Node2D"]

process/pause_mode = 2
script/script = ExtResource( 1 )

[node name="Label" type="Label" parent="."]

focus/ignore_mouse = true
focus/stop_mouse = true
size_flags/horizontal = 2
size_flags/vertical = 0
margin/left = -1.0
margin/top = 114.0
margin/right = 641.0
margin/bottom = 217.0
custom_fonts/font = ExtResource( 2 )
text = "White Wins"
align = 1
valign = 1
percent_visible = 1.0
lines_skipped = 0
max_lines_visible = -1

[node name="Label2" type="Label" parent="."]

focus/ignore_mouse = true
focus/stop_mouse = true
size_flags/horizontal = 2
size_flags/vertical = 0
margin/left = 1.0
margin/top = 280.0
margin/right = 644.0
margin/bottom = 296.0
custom_fonts/font = ExtResource( 3 )
text = "Click Anywhere to play again"
align = 1
valign = 1
percent_visible = 1.0
lines_skipped = 0
max_lines_visible = -1

[node name="Button" type="Button" parent="."]

focus/ignore_mouse = false
focus/stop_mouse = true
size_flags/horizontal = 2
size_flags/vertical = 2
margin/left = 203.0
margin/top = 348.0
margin/right = 428.0
margin/bottom = 427.0
custom_fonts/font = ExtResource( 3 )
toggle_mode = false
enabled_focus_mode = 2
shortcut = null
text = "Play again"
flat = false

[connection signal="pressed" from="Button" to="." method="_on_Button_pressed"]


